Version 4
SHEET 1 880 680
WIRE 64 -32 -64 -32
WIRE 416 -32 304 -32
WIRE -64 0 -64 -32
WIRE 416 0 416 -32
WIRE 64 16 64 -32
WIRE 192 16 144 16
WIRE 304 16 304 -32
WIRE 64 32 64 16
WIRE 192 64 192 16
WIRE 64 128 64 112
WIRE 64 128 0 128
WIRE 144 128 64 128
WIRE 304 128 304 96
WIRE 304 128 240 128
WIRE 368 128 304 128
WIRE 368 144 368 128
FLAG -64 80 0
FLAG 416 80 0
FLAG 368 224 0
SYMBOL npn3 240 64 R90
SYMATTR InstName Q1
SYMATTR Value 2N3904
SYMBOL res 160 0 R90
WINDOW 0 0 56 VBottom 2
WINDOW 3 32 56 VTop 2
SYMATTR InstName R1
SYMATTR Value 4.7K
SYMBOL res 80 128 R180
WINDOW 0 36 76 Left 2
WINDOW 3 36 40 Left 2
SYMATTR InstName R2
SYMATTR Value 10K
SYMBOL res 288 0 R0
SYMATTR InstName R3
SYMATTR Value 10K
SYMBOL voltage -64 -16 R0
WINDOW 123 0 0 Left 0
WINDOW 39 0 0 Left 0
SYMATTR InstName V1
SYMATTR Value 3.3
SYMBOL voltage 416 -16 R0
WINDOW 123 0 0 Left 0
WINDOW 39 0 0 Left 0
SYMATTR InstName V2
SYMATTR Value 5
SYMBOL voltage 368 128 R0
WINDOW 123 0 0 Left 0
WINDOW 39 0 0 Left 0
SYMATTR InstName V3
SYMATTR Value PULSE(0 5 1n 1n 1n 5u 10u)
TEXT -98 248 Left 2 !.tran 0.001
